﻿[
	{
		"ID": 1,
		"UserID": 2,
		"PhotoSrc": "Sample/photo1.jpg",
		"Caption": "oww this is great",
	},
	{
		"ID": 2,
		"UserID": 2,
		"PhotoSrc": "Sample/photo2.jpg",
		"Caption": "oww this is great",
	},
	{
		"ID": 3,
		"UserID": 3,
		"PhotoSrc": "Sample/photo3.jpg",
		"Caption": "oww this is great",
	},
	{
		"ID": 4,
		"UserID": 3,
		"PhotoSrc": "Sample/photo4.jpg",
		"Caption": "oww this is great",
	},
	{
		"ID": 5,
		"UserID": 3,
		"PhotoSrc": "Sample/photo5.jpg",
		"Caption": "oww this is great",
	},
	{
		"ID": 6,
		"UserID": 1,
		"PhotoSrc": "Sample/photo6.jpg",
		"Caption": "oww this is great",
	},
	{
		"ID": 7,
		"UserID": 1,
		"PhotoSrc": "Sample/photo7.jpg",
		"Caption": "oww this is great",
	},
	{
		"ID": 8,
		"UserID": 1,
		"PhotoSrc": "Sample/photo8.jpg",
		"Caption": "oww this is great",
	},
	{
		"ID": 9,
		"UserID": 2,
		"PhotoSrc": "Sample/photo9.jpg",
		"Caption": "oww this is great",
	},
	{
		"ID": 10,
		"UserID": 3,
		"PhotoSrc": "Sample/photo10.jpg",
		"Caption": "oww this is great",
	}
]
